[
	[
		{
			"fieldType": "Repair",
			"flag":0,
			"walls":[0,0,0,0],
			"lasers":[0,0,0,0],
			"rotate":[0,0], 
			"shift":[0,0,0,0]
		},
		{
			"fieldType": "ConveyorBelt",
			"flag":1,
			"walls":[0,0,0,0],
			"lasers":[0,0,0,0],
			"rotate":[0,0], 
			"shift":[0,0,1,0]
		},
		{
			"fieldType": "Floor",
			"flag":0,
			"walls":[1,0,0,0],
			"lasers":[0,0,0,0],
			"rotate":[0,0], 
			"shift":[0,0,0,0]
		},
		{
			"fieldType": "Floor",
			"flag":0,
			"walls":[0,0,0,0],
			"lasers":[0,0,0,0],
			"rotate":[0,0], 
			"shift":[0,0,0,0]
		},
		{
			"fieldType": "Floor",
			"flag":0,
			"walls":[1,0,0,0],
			"lasers":[0,0,0,0],
			"rotate":[0,0], 
			"shift":[0,0,0,0]
		},
		{
			"fieldType": "ConveyorBelt",
			"flag":0,
			"walls":[0,0,0,0],
			"lasers":[0,0,0,0],
			"rotate":[0,0], 
			"shift":[0,0,1,0]
		},
		{
			"fieldType": "ConveyorBelt",
			"flag":0,
			"walls":[0,0,0,0],
			"lasers":[0,0,0,0],
			"rotate":[0,0], 
			"shift":[1,0,0,0]
		},
		{
			"fieldType": "Floor",
			"flag":0,
			"walls":[1,0,0,0],
			"lasers":[0,0,0,0],
			"rotate":[0,0], 
			"shift":[0,0,0,0]
		},
		{
			"fieldType": "Floor",
			"flag":0,
			"walls":[0,0,0,0],
			"lasers":[0,0,0,0],
			"rotate":[0,0], 
			"shift":[0,0,0,0]
		},
		{
			"fieldType": "Floor",
			"flag":0,
			"walls":[1,0,0,0],
			"lasers":[0,0,0,0],
			"rotate":[0,0], 
			"shift":[0,0,0,0]
		},
		{
			"fieldType": "Floor",
			"flag":0,
			"walls":[0,0,0,0],
			"lasers":[0,0,0,0],
			"rotate":[0,0], 
			"shift":[0,0,0,0]
		},
		{
			"fieldType": "Floor",
			"flag":0,
			"walls":[0,0,0,0],
			"lasers":[0,0,0,0],
			"rotate":[0,0], 
			"shift":[0,0,0,0]
		}
	],
	[
		{
			"fieldType": "Floor",
			"flag":0,
			"walls":[0,0,0,0],
			"lasers":[0,0,0,0],
			"rotate":[0,0], 
			"shift":[0,0,0,0]
		},
		{
			"fieldType": "ConveyorBelt",
			"flag":0,
			"walls":[0,0,0,0],
			"lasers":[0,0,0,0],
			"rotate":[0,1], 
			"shift":[0,1,0,0]
		},
		{
			"fieldType": "ConveyorBelt",
			"flag":0,
			"walls":[0,0,0,0],
			"lasers":[0,0,0,0],
			"rotate":[0,0], 
			"shift":[0,1,0,0]
		},
		{
			"fieldType": "ConveyorBelt",
			"flag":0,
			"walls":[0,0,0,0],
			"lasers":[0,0,0,0],
			"rotate":[0,0], 
			"shift":[0,1,0,0]
		},
		{
			"fieldType": "ConveyorBelt",
			"flag":0,
			"walls":[0,0,0,0],
			"lasers":[0,0,0,0],
			"rotate":[0,0], 
			"shift":[0,1,0,0]
		},
		{
			"fieldType": "ConveyorBelt",
			"flag":0,
			"walls":[0,0,0,0],
			"lasers":[0,0,0,0],
			"rotate":[1,1], 
			"shift":[0,1,0,0]
		},
		{
			"fieldType": "ConveyorBelt",
			"flag":0,
			"walls":[0,0,0,0],
			"lasers":[0,0,0,0],
			"rotate":[0,0], 
			"shift":[0,1,0,0]
		},
		{
			"fieldType": "ConveyorBelt",
			"flag":0,
			"walls":[0,0,0,0],
			"lasers":[0,0,0,0],
			"rotate":[0,0], 
			"shift":[0,1,0,0]
		},
		{
			"fieldType": "ConveyorBelt",
			"flag":0,
			"walls":[0,0,0,0],
			"lasers":[0,0,0,0],
			"rotate":[0,0], 
			"shift":[0,1,0,0]
		},
		{
			"fieldType": "ConveyorBelt",
			"flag":0,
			"walls":[0,0,0,0],
			"lasers":[0,0,0,0],
			"rotate":[0,0], 
			"shift":[0,1,0,0]
		},
		{
			"fieldType": "ConveyorBelt",
			"flag":0,
			"walls":[0,0,0,0],
			"lasers":[0,0,0,0],
			"rotate":[1,1], 
			"shift":[0,0,1,0]
		},
		{
			"fieldType": "ConveyorBelt",
			"flag":0,
			"walls":[0,0,0,0],
			"lasers":[0,0,0,0],
			"rotate":[0,0], 
			"shift":[0,0,0,1]
		}
	],
	[
		{
			"fieldType": "Floor",
			"flag":0,
			"walls":[0,0,0,1],
			"lasers":[0,0,0,0],
			"rotate":[0,0], 
			"shift":[0,0,0,0]
		},
		{
			"fieldType": "ConveyorBelt",
			"flag":0,
			"walls":[0,0,0,0],
			"lasers":[0,0,0,0],
			"rotate":[1,0], 
			"shift":[0,2,0,0]
		},
		{
			"fieldType": "ConveyorBelt",
			"flag":0,
			"walls":[0,0,0,0],
			"lasers":[0,0,0,0],
			"rotate":[0,0], 
			"shift":[0,2,0,0]
		},
		{
			"fieldType": "ConveyorBelt",
			"flag":0,
			"walls":[0,0,0,0],
			"lasers":[0,0,0,0],
			"rotate":[0,0], 
			"shift":[0,2,0,0]
		},
		{
			"fieldType": "ConveyorBelt",
			"flag":0,
			"walls":[0,0,0,0],
			"lasers":[0,0,0,0],
			"rotate":[0,0], 
			"shift":[0,2,0,0]
		},
		{
			"fieldType": "ConveyorBelt",
			"flag":0,
			"walls":[0,0,0,0],
			"lasers":[0,0,0,0],
			"rotate":[0,0], 
			"shift":[0,2,0,0]
		},
		{
			"fieldType": "ConveyorBelt",
			"flag":0,
			"walls":[0,0,0,0],
			"lasers":[0,0,0,0],
			"rotate":[0,0], 
			"shift":[0,2,0,0]
		},
		{
			"fieldType": "ConveyorBelt",
			"flag":0,
			"walls":[0,0,0,0],
			"lasers":[0,0,0,0],
			"rotate":[0,0], 
			"shift":[0,2,0,0]
		},
		{
			"fieldType": "ConveyorBelt",
			"flag":0,
			"walls":[0,0,0,0],
			"lasers":[0,0,0,0],
			"rotate":[0,0], 
			"shift":[0,2,0,0]
		},
		{
			"fieldType": "ConveyorBelt",
			"flag":0,
			"walls":[0,0,0,0],
			"lasers":[0,0,0,0],
			"rotate":[1,0], 
			"shift":[0,0,2,0]
		},
		{
			"fieldType": "ConveyorBelt",
			"flag":0,
			"walls":[0,0,0,0],
			"lasers":[0,0,0,0],
			"rotate":[0,0], 
			"shift":[0,0,1,0]
		},
		{
			"fieldType": "Floor",
			"flag":0,
			"walls":[0,1,0,0],
			"lasers":[0,0,0,0],
			"rotate":[0,0], 
			"shift":[0,0,0,0]
		}
	],
	[
		{
			"fieldType": "Floor",
			"flag":0,
			"walls":[0,0,0,0],
			"lasers":[0,0,0,0],
			"rotate":[0,0], 
			"shift":[0,0,0,0]
		},
		{
			"fieldType": "ConveyorBelt",
			"flag":0,
			"walls":[0,0,0,0],
			"lasers":[0,0,0,0],
			"rotate":[0,0], 
			"shift":[2,0,0,0]
		},
		{
			"fieldType": "ConveyorBelt",
			"flag":0,
			"walls":[0,0,0,0],
			"lasers":[0,0,0,0],
			"rotate":[1,0], 
			"shift":[0,1,0,0]
		},
		{
			"fieldType": "ConveyorBelt",
			"flag":0,
			"walls":[0,0,0,0],
			"lasers":[0,0,0,0],
			"rotate":[0,0], 
			"shift":[0,1,0,0]
		},
		{
			"fieldType": "ConveyorBelt",
			"flag":0,
			"walls":[0,0,0,0],
			"lasers":[0,0,0,0],
			"rotate":[0,0], 
			"shift":[0,1,0,0]
		},
		{
			"fieldType": "ConveyorBelt",
			"flag":0,
			"walls":[1,0,0,0],
			"lasers":[0,0,1,0],
			"rotate":[0,0], 
			"shift":[0,1,0,0]
		},
		{
			"fieldType": "ConveyorBelt",
			"flag":0,
			"walls":[0,0,0,0],
			"lasers":[0,0,0,0],
			"rotate":[0,0], 
			"shift":[0,1,0,0]
		},
		{
			"fieldType": "ConveyorBelt",
			"flag":0,
			"walls":[0,0,0,0],
			"lasers":[0,0,0,0],
			"rotate":[0,0], 
			"shift":[0,1,0,0]
		},
		{
			"fieldType": "ConveyorBelt",
			"flag":0,
			"walls":[0,0,0,0],
			"lasers":[0,0,0,0],
			"rotate":[1,0], 
			"shift":[0,0,1,0]
		},
		{
			"fieldType": "ConveyorBelt",
			"flag":0,
			"walls":[0,0,0,0],
			"lasers":[0,0,0,0],
			"rotate":[0,0], 
			"shift":[0,0,2,0]
		},
		{
			"fieldType": "ConveyorBelt",
			"flag":0,
			"walls":[0,0,0,0],
			"lasers":[0,0,0,0],
			"rotate":[0,0], 
			"shift":[0,0,1,0]
		},
		{
			"fieldType": "Repair",
			"flag":0,
			"walls":[0,0,0,0],
			"lasers":[0,0,0,0],
			"rotate":[0,0], 
			"shift":[0,0,0,0]
		}
	],
	[
		{
			"fieldType": "Floor",
			"flag":0,
			"walls":[0,0,0,1],
			"lasers":[0,0,0,0],
			"rotate":[0,0], 
			"shift":[0,0,0,0]
		},
		{
			"fieldType": "ConveyorBelt",
			"flag":0,
			"walls":[0,0,0,0],
			"lasers":[0,0,0,0],
			"rotate":[0,0], 
			"shift":[2,0,0,0]
		},
		{
			"fieldType": "ConveyorBelt",
			"flag":0,
			"walls":[0,0,0,0],
			"lasers":[0,0,0,0],
			"rotate":[0,0], 
			"shift":[1,0,0,0]
		},
		{
			"fieldType": "ConveyorBelt",
			"flag":0,
			"walls":[0,0,0,0],
			"lasers":[0,0,0,0],
			"rotate":[1,0], 
			"shift":[0,2,0,0]
		},
		{
			"fieldType": "ConveyorBelt",
			"flag":0,
			"walls":[0,0,0,0],
			"lasers":[0,0,0,0],
			"rotate":[0,0], 
			"shift":[0,2,0,0]
		},
		{
			"fieldType": "ConveyorBelt",
			"flag":0,
			"walls":[1,0,0,0],
			"lasers":[0,0,1,0],
			"rotate":[0,0], 
			"shift":[0,2,0,0]
		},
		{
			"fieldType": "ConveyorBelt",
			"flag":0,
			"walls":[1,0,0,0],
			"lasers":[0,0,1,0],
			"rotate":[0,0], 
			"shift":[0,2,0,0]
		},
		{
			"fieldType": "ConveyorBelt",
			"flag":0,
			"walls":[0,0,0,0],
			"lasers":[0,0,0,0],
			"rotate":[1,0], 
			"shift":[0,0,2,0]
		},
		{
			"fieldType": "ConveyorBelt",
			"flag":0,
			"walls":[0,0,0,0],
			"lasers":[0,0,0,0],
			"rotate":[0,0], 
			"shift":[0,0,1,0]
		},
		{
			"fieldType": "ConveyorBelt",
			"flag":0,
			"walls":[0,0,0,0],
			"lasers":[0,0,0,0],
			"rotate":[0,0], 
			"shift":[0,0,2,0]
		},
		{
			"fieldType": "ConveyorBelt",
			"flag":0,
			"walls":[0,0,0,0],
			"lasers":[0,0,0,0],
			"rotate":[0,0], 
			"shift":[0,0,1,0]
		},
		{
			"fieldType": "Floor",
			"flag":0,
			"walls":[0,1,0,0],
			"lasers":[0,0,0,0],
			"rotate":[0,0], 
			"shift":[0,0,0,0]
		}
	],
	[
		{
			"fieldType": "ConveyorBelt",
			"flag":0,
			"walls":[0,0,0,0],
			"lasers":[0,0,0,0],
			"rotate":[0,0], 
			"shift":[0,0,0,1]
		},
		{
			"fieldType": "ConveyorBelt",
			"flag":0,
			"walls":[0,0,0,0],
			"lasers":[0,0,0,0],
			"rotate":[0,0], 
			"shift":[2,0,0,0]
		},
		{
			"fieldType": "ConveyorBelt",
			"flag":0,
			"walls":[0,0,0,0],
			"lasers":[0,0,0,0],
			"rotate":[0,0], 
			"shift":[1,0,0,0]
		},
		{
			"fieldType": "ConveyorBelt",
			"flag":0,
			"walls":[0,0,0,0],
			"lasers":[0,0,0,0],
			"rotate":[0,0], 
			"shift":[2,0,0,0]
		},
		{
			"fieldType": "ConveyorBelt",
			"flag":0,
			"walls":[0,0,0,1],
			"lasers":[0,0,0,1],
			"rotate":[1,0], 
			"shift":[0,1,0,0]
		},
		{
			"fieldType": "Pit",
			"flag":0,
			"walls":[0,0,0,0],
			"lasers":[0,0,1,1],
			"rotate":[0,0], 
			"shift":[0,0,0,0]
		},
		{
			"fieldType": "Pit",
			"flag":0,
			"walls":[0,0,0,0],
			"lasers":[0,0,1,1],
			"rotate":[0,0], 
			"shift":[0,0,0,0]
		},
		{
			"fieldType": "ConveyorBelt",
			"flag":0,
			"walls":[0,0,0,0],
			"lasers":[0,0,0,1],
			"rotate":[0,0], 
			"shift":[0,0,2,0]
		},
		{
			"fieldType": "ConveyorBelt",
			"flag":0,
			"walls":[0,1,0,0],
			"lasers":[0,0,0,1],
			"rotate":[0,0], 
			"shift":[0,0,1,0]
		},
		{
			"fieldType": "ConveyorBelt",
			"flag":0,
			"walls":[0,0,0,0],
			"lasers":[0,0,0,0],
			"rotate":[0,0], 
			"shift":[0,0,2,0]
		},
		{
			"fieldType": "ConveyorBelt",
			"flag":0,
			"walls":[0,0,0,0],
			"lasers":[0,0,0,0],
			"rotate":[1,1], 
			"shift":[0,0,1,0]
		},
		{
			"fieldType": "ConveyorBelt",
			"flag":0,
			"walls":[0,0,0,0],
			"lasers":[0,0,0,0],
			"rotate":[0,0], 
			"shift":[0,0,0,1]
		}
	],
	[
		{
			"fieldType": "ConveyorBelt",
			"flag":4,
			"walls":[0,0,0,0],
			"lasers":[0,0,0,0],
			"rotate":[0,0], 
			"shift":[0,2,0,0]
		},
		{
			"fieldType": "ConveyorBelt",
			"flag":0,
			"walls":[0,0,0,0],
			"lasers":[0,0,0,0],
			"rotate":[1,1], 
			"shift":[2,0,0,0]
		},
		{
			"fieldType": "ConveyorBelt",
			"flag":0,
			"walls":[0,0,0,0],
			"lasers":[0,0,0,0],
			"rotate":[0,0], 
			"shift":[1,0,0,0]
		},
		{
			"fieldType": "ConveyorBelt",
			"flag":0,
			"walls":[0,0,0,1],
			"lasers":[0,0,0,1],
			"rotate":[0,0], 
			"shift":[2,0,0,0]
		},
		{
			"fieldType": "ConveyorBelt",
			"flag":0,
			"walls":[0,0,0,0],
			"lasers":[0,0,0,1],
			"rotate":[1,0], 
			"shift":[0,1,0,0]
		},
		{
			"fieldType": "Pit",
			"flag":0,
			"walls":[0,0,0,0],
			"lasers":[0,0,1,1],
			"rotate":[0,0], 
			"shift":[0,0,0,0]
		},
		{
			"fieldType": "Pit",
			"flag":0,
			"walls":[0,0,0,0],
			"lasers":[0,0,1,1],
			"rotate":[0,0], 
			"shift":[0,0,0,0]
		},
		{
			"fieldType": "ConveyorBelt",
			"flag":0,
			"walls":[0,1,0,0],
			"lasers":[0,0,0,1],
			"rotate":[0,0], 
			"shift":[0,0,0,2]
		},
		{
			"fieldType": "ConveyorBelt",
			"flag":0,
			"walls":[0,0,0,0],
			"lasers":[0,0,0,0],
			"rotate":[1,0], 
			"shift":[0,0,1,0]
		},
		{
			"fieldType": "ConveyorBelt",
			"flag":0,
			"walls":[0,0,0,0],
			"lasers":[0,0,0,0],
			"rotate":[0,0], 
			"shift":[0,0,2,0]
		},
		{
			"fieldType": "ConveyorBelt",
			"flag":0,
			"walls":[0,0,0,0],
			"lasers":[0,0,0,0],
			"rotate":[0,0], 
			"shift":[0,0,1,0]
		},
		{
			"fieldType": "Floor",
			"flag":0,
			"walls":[0,0,0,0],
			"lasers":[0,0,0,0],
			"rotate":[0,0], 
			"shift":[0,0,0,0]
		}
	],
	[
		{
			"fieldType": "Floor",
			"flag":0,
			"walls":[0,0,0,1],
			"lasers":[0,0,0,0],
			"rotate":[0,0], 
			"shift":[0,0,0,0]
		},
		{
			"fieldType": "ConveyorBelt",
			"flag":0,
			"walls":[0,0,0,0],
			"lasers":[0,0,0,0],
			"rotate":[0,0], 
			"shift":[2,0,0,0]
		},
		{
			"fieldType": "ConveyorBelt",
			"flag":0,
			"walls":[0,0,0,0],
			"lasers":[0,0,0,0],
			"rotate":[0,0], 
			"shift":[1,0,0,0]
		},
		{
			"fieldType": "ConveyorBelt",
			"flag":0,
			"walls":[0,0,0,0],
			"lasers":[0,0,0,0],
			"rotate":[0,0], 
			"shift":[2,0,0,0]
		},
		{
			"fieldType": "ConveyorBelt",
			"flag":0,
			"walls":[0,0,0,0],
			"lasers":[0,0,0,0],
			"rotate":[1,0], 
			"shift":[1,0,0,0]
		},
		{
			"fieldType": "ConveyorBelt",
			"flag":0,
			"walls":[0,0,1,0],
			"lasers":[0,0,1,0],
			"rotate":[0,0], 
			"shift":[0,0,0,1]
		},
		{
			"fieldType": "ConveyorBelt",
			"flag":0,
			"walls":[0,0,0,0],
			"lasers":[0,0,1,0],
			"rotate":[0,0], 
			"shift":[0,0,0,1]
		},
		{
			"fieldType": "ConveyorBelt",
			"flag":0,
			"walls":[0,0,0,0],
			"lasers":[0,0,0,0],
			"rotate":[0,0], 
			"shift":[0,0,0,1]
		},
		{
			"fieldType": "ConveyorBelt",
			"flag":0,
			"walls":[0,0,0,0],
			"lasers":[0,0,0,0],
			"rotate":[1,0], 
			"shift":[0,0,0,1]
		},
		{
			"fieldType": "ConveyorBelt",
			"flag":0,
			"walls":[0,0,0,0],
			"lasers":[0,0,0,0],
			"rotate":[0,0], 
			"shift":[0,0,2,0]
		},
		{
			"fieldType": "ConveyorBelt",
			"flag":0,
			"walls":[0,0,0,0],
			"lasers":[0,0,0,0],
			"rotate":[0,0], 
			"shift":[0,0,1,0]
		},
		{
			"fieldType": "Floor",
			"flag":0,
			"walls":[0,1,0,0],
			"lasers":[0,0,0,0],
			"rotate":[0,0], 
			"shift":[0,0,0,0]
		}
	],
	[
		{
			"fieldType": "Repair",
			"flag":0,
			"walls":[0,0,0,0],
			"lasers":[0,0,0,0],
			"rotate":[0,0], 
			"shift":[0,0,0,0]
		},
		{
			"fieldType": "ConveyorBelt",
			"flag":0,
			"walls":[0,0,0,0],
			"lasers":[0,0,0,0],
			"rotate":[0,0], 
			"shift":[2,0,0,0]
		},
		{
			"fieldType": "ConveyorBelt",
			"flag":0,
			"walls":[0,0,0,0],
			"lasers":[0,0,0,0],
			"rotate":[0,0], 
			"shift":[1,0,0,0]
		},
		{
			"fieldType": "ConveyorBelt",
			"flag":0,
			"walls":[0,0,0,0],
			"lasers":[0,0,0,0],
			"rotate":[1,0], 
			"shift":[2,0,0,0]
		},
		{
			"fieldType": "ConveyorBelt",
			"flag":0,
			"walls":[0,0,0,0],
			"lasers":[0,0,0,0],
			"rotate":[0,0], 
			"shift":[0,0,0,2]
		},
		{
			"fieldType": "ConveyorBelt",
			"flag":0,
			"walls":[0,0,0,0],
			"lasers":[0,0,0,0],
			"rotate":[0,0], 
			"shift":[0,0,0,2]
		},
		{
			"fieldType": "ConveyorBelt",
			"flag":0,
			"walls":[0,0,1,0],
			"lasers":[0,0,1,0],
			"rotate":[0,0], 
			"shift":[0,0,0,2]
		},
		{
			"fieldType": "ConveyorBelt",
			"flag":0,
			"walls":[0,0,0,0],
			"lasers":[0,0,0,0],
			"rotate":[0,0], 
			"shift":[0,0,0,2]
		},
		{
			"fieldType": "ConveyorBelt",
			"flag":0,
			"walls":[0,0,0,0],
			"lasers":[0,0,0,0],
			"rotate":[0,0], 
			"shift":[0,0,0,2]
		},
		{
			"fieldType": "ConveyorBelt",
			"flag":0,
			"walls":[0,0,0,0],
			"lasers":[0,0,0,0],
			"rotate":[1,0], 
			"shift":[0,0,0,2]
		},
		{
			"fieldType": "ConveyorBelt",
			"flag":0,
			"walls":[0,0,0,0],
			"lasers":[0,0,0,0],
			"rotate":[0,0], 
			"shift":[0,0,1,0]
		},
		{
			"fieldType": "Floor",
			"flag":0,
			"walls":[0,0,0,0],
			"lasers":[0,0,0,0],
			"rotate":[0,0], 
			"shift":[0,0,0,0]
		}
	],
	[
		{
			"fieldType": "Floor",
			"flag":0,
			"walls":[0,0,0,1],
			"lasers":[0,0,0,0],
			"rotate":[0,0], 
			"shift":[2,0,0,0]
		},
		{
			"fieldType": "ConveyorBelt",
			"flag":0,
			"walls":[0,0,0,0],
			"lasers":[0,0,0,0],
			"rotate":[1,0], 
			"shift":[1,0,0,0]
		},
		{
			"fieldType": "ConveyorBelt",
			"flag":0,
			"walls":[0,0,0,0],
			"lasers":[0,0,0,0],
			"rotate":[0,0], 
			"shift":[0,0,0,1]
		},
		{
			"fieldType": "ConveyorBelt",
			"flag":0,
			"walls":[0,0,0,0],
			"lasers":[0,0,0,0],
			"rotate":[0,0], 
			"shift":[0,0,0,1]
		},
		{
			"fieldType": "ConveyorBelt",
			"flag":0,
			"walls":[0,0,0,0],
			"lasers":[0,0,0,0],
			"rotate":[0,0], 
			"shift":[0,0,0,1]
		},
		{
			"fieldType": "ConveyorBelt",
			"flag":0,
			"walls":[0,0,0,0],
			"lasers":[0,0,0,0],
			"rotate":[0,0], 
			"shift":[0,0,0,1]
		},
		{
			"fieldType": "ConveyorBelt",
			"flag":0,
			"walls":[0,0,0,0],
			"lasers":[0,0,0,0],
			"rotate":[0,0], 
			"shift":[0,0,0,1]
		},
		{
			"fieldType": "ConveyorBelt",
			"flag":0,
			"walls":[0,0,0,0],
			"lasers":[0,0,0,0],
			"rotate":[0,0], 
			"shift":[0,0,0,1]
		},
		{
			"fieldType": "ConveyorBelt",
			"flag":0,
			"walls":[0,0,0,0],
			"lasers":[0,0,0,0],
			"rotate":[0,0], 
			"shift":[0,0,0,1]
		},
		{
			"fieldType": "ConveyorBelt",
			"flag":0,
			"walls":[0,0,0,0],
			"lasers":[0,0,0,0],
			"rotate":[0,0], 
			"shift":[0,0,0,1]
		},
		{
			"fieldType": "ConveyorBelt",
			"flag":0,
			"walls":[0,0,0,0],
			"lasers":[0,0,0,0],
			"rotate":[1,0], 
			"shift":[0,0,0,1]
		},
		{
			"fieldType": "Floor",
			"flag":0,
			"walls":[0,0,1,0],
			"lasers":[0,0,0,0],
			"rotate":[0,0], 
			"shift":[0,0,0,0]
		}
	],
	[
		{
			"fieldType": "ConveyorBelt",
			"flag":0,
			"walls":[0,0,0,0],
			"lasers":[0,0,0,0],
			"rotate":[0,0], 
			"shift":[0,2,0,0]
		},
		{
			"fieldType": "ConveyorBelt",
			"flag":0,
			"walls":[0,0,0,0],
			"lasers":[0,0,0,0],
			"rotate":[1,1], 
			"shift":[2,0,0,0]
		},
		{
			"fieldType": "ConveyorBelt",
			"flag":0,
			"walls":[0,0,0,0],
			"lasers":[0,0,0,0],
			"rotate":[0,0], 
			"shift":[0,0,0,2]
		},
		{
			"fieldType": "ConveyorBelt",
			"flag":0,
			"walls":[0,0,0,0],
			"lasers":[0,0,0,0],
			"rotate":[0,0], 
			"shift":[0,0,0,2]
		},
		{
			"fieldType": "ConveyorBelt",
			"flag":0,
			"walls":[0,0,0,0],
			"lasers":[0,0,0,0],
			"rotate":[0,0], 
			"shift":[0,0,0,2]
		},
		{
			"fieldType": "ConveyorBelt",
			"flag":0,
			"walls":[0,0,0,0],
			"lasers":[0,0,0,0],
			"rotate":[0,0], 
			"shift":[0,0,0,2]
		},
		{
			"fieldType": "ConveyorBelt",
			"flag":0,
			"walls":[0,0,0,0],
			"lasers":[0,0,0,0],
			"rotate":[1,1], 
			"shift":[0,0,0,2]
		},
		{
			"fieldType": "ConveyorBelt",
			"flag":0,
			"walls":[0,0,0,0],
			"lasers":[0,0,0,0],
			"rotate":[0,0], 
			"shift":[0,0,0,2]
		},
		{
			"fieldType": "ConveyorBelt",
			"flag":0,
			"walls":[0,0,0,0],
			"lasers":[0,0,0,0],
			"rotate":[0,0], 
			"shift":[0,0,0,2]
		},
		{
			"fieldType": "ConveyorBelt",
			"flag":0,
			"walls":[0,0,0,0],
			"lasers":[0,0,0,0],
			"rotate":[0,0], 
			"shift":[0,0,0,2]
		},
		{
			"fieldType": "ConveyorBelt",
			"flag":0,
			"walls":[0,0,0,0],
			"lasers":[0,0,0,0],
			"rotate":[0,1], 
			"shift":[0,0,0,2]
		},
		{
			"fieldType": "Floor",
			"flag":0,
			"walls":[0,0,0,0],
			"lasers":[0,0,0,0],
			"rotate":[0,0], 
			"shift":[0,0,0,0]
		}
	],
	[
		{
			"fieldType": "Floor",
			"flag":0,
			"walls":[0,0,0,0],
			"lasers":[0,0,0,0],
			"rotate":[0,0], 
			"shift":[0,0,0,0]
		},
		{
			"fieldType": "Floor",
			"flag":0,
			"walls":[0,0,0,0],
			"lasers":[0,0,0,0],
			"rotate":[0,0], 
			"shift":[0,0,0,0]
		},
		{
			"fieldType": "Floor",
			"flag":0,
			"walls":[0,0,1,0],
			"lasers":[0,0,0,0],
			"rotate":[0,0], 
			"shift":[0,0,0,0]
		},
		{
			"fieldType": "Floor",
			"flag":0,
			"walls":[0,0,0,0],
			"lasers":[0,0,0,0],
			"rotate":[0,0], 
			"shift":[0,0,0,0]
		},
		{
			"fieldType": "Floor",
			"flag":0,
			"walls":[0,0,1,0],
			"lasers":[0,0,0,0],
			"rotate":[0,0], 
			"shift":[0,0,0,0]
		},
		{
			"fieldType": "Floor",
			"flag":0,
			"walls":[0,0,0,0],
			"lasers":[0,0,0,0],
			"rotate":[0,0], 
			"shift":[0,0,0,0]
		},
		{
			"fieldType": "ConveyorBelt",
			"flag":0,
			"walls":[0,0,0,0],
			"lasers":[0,0,0,0],
			"rotate":[0,0], 
			"shift":[2,0,0,0]
		},
		{
			"fieldType": "Floor",
			"flag":0,
			"walls":[0,0,1,0],
			"lasers":[0,0,0,0],
			"rotate":[0,0], 
			"shift":[0,0,0,0]
		},
		{
			"fieldType": "Floor",
			"flag":0,
			"walls":[0,0,0,0],
			"lasers":[0,0,0,0],
			"rotate":[0,0], 
			"shift":[0,0,0,0]
		},
		{
			"fieldType": "Floor",
			"flag":0,
			"walls":[0,0,1,0],
			"lasers":[0,0,0,0],
			"rotate":[0,0], 
			"shift":[0,0,0,0]
		},
		{
			"fieldType": "ConveyorBelt",
			"flag":0,
			"walls":[0,0,0,0],
			"lasers":[0,0,0,0],
			"rotate":[0,0], 
			"shift":[2,0,0,0]
		},
		{
			"fieldType": "Repair",
			"flag":0,
			"walls":[0,0,0,0],
			"lasers":[0,0,0,0],
			"rotate":[0,0], 
			"shift":[0,0,0,0]
		}
	]
]